IS415-GAA - Hands-on Exercise 2
…
Performing data wrangling on the data. I have adjusted the rowSums for the grouping as the order of columns may be sorted differently. For example, age group 5_to_9 is under column 14, not 12.

popwider <- popdata %>%
  filter(Time == 2020) %>%
  group_by(PA, SZ, AG) %>%
  summarise(`POP` = sum(`Pop`)) %>%
  ungroup()%>%
  pivot_wider(names_from=AG,values_from=POP)

`summarise()` has grouped output by 'PA', 'SZ'. You can override using the
`.groups` argument.

popwider

# A tibble: 332 × 21
   PA      SZ    `0_to_4` `10_to_14` `15_to_19` `20_to_24` `25_to_29` `30_to_34`
   <chr>   <chr>    <dbl>      <dbl>      <dbl>      <dbl>      <dbl>      <dbl>
 1 Ang Mo… Ang …      170        280        340        270        260        310
 2 Ang Mo… Chen…     1060       1040       1160       1330       1720       2020
 3 Ang Mo… Chon…      850       1020       1070       1310       1610       1890
 4 Ang Mo… Kebu…      680        960       1010       1170       1410       1420
 5 Ang Mo… Semb…      210        400        450        500        500        340
 6 Ang Mo… Shan…      560        640        700        860        970       1030
 7 Ang Mo… Tago…      200        390        460        590        680        500
 8 Ang Mo… Town…      670        930        830        890       1310       1410
 9 Ang Mo… Yio …        0          0          0          0          0          0
10 Ang Mo… Yio …      160        210        260        300        320        240
# ℹ 322 more rows
# ℹ 13 more variables: `35_to_39` <dbl>, `40_to_44` <dbl>, `45_to_49` <dbl>,
#   `50_to_54` <dbl>, `55_to_59` <dbl>, `5_to_9` <dbl>, `60_to_64` <dbl>,
#   `65_to_69` <dbl>, `70_to_74` <dbl>, `75_to_79` <dbl>, `80_to_84` <dbl>,
#   `85_to_89` <dbl>, `90_and_over` <dbl>
…
`summarise()` has grouped output by 'PA', 'SZ'. You can override using the
`.groups` argument.

popdata2020

# A tibble: 332 × 7
   PA         SZ                   YOUNG `ECONOMY ACTIVE`  AGED TOTAL DEPENDENCY
   <chr>      <chr>                <dbl>            <dbl> <dbl> <dbl>      <dbl>
 1 Ang Mo Kio Ang Mo Kio Town Cen…  1290             2760   760  4810      0.743
 2 Ang Mo Kio Cheng San             5640            16460  6050 28150      0.710
 3 Ang Mo Kio Chong Boon            5100            15000  6470 26570      0.771
 4 Ang Mo Kio Kebun Bahru           4620            13010  5120 22750      0.749
 5 Ang Mo Kio Sembawang Hills       1880             3630  1310  6820      0.879
 6 Ang Mo Kio Shangri-La            3330             9050  3610 15990      0.767
 7 Ang Mo Kio Tagore                1940             4480  1530  7950      0.775
 8 Ang Mo Kio Townsville            4190            11950  5100 21240      0.777
 9 Ang Mo Kio Yio Chu Kang             0                0     0     0    NaN    
10 Ang Mo Kio Yio Chu Kang East     1110             2410   750  4270      0.772
# ℹ 322 more rows
…
